uart/testbench/waveform.vcd
$date
	Thu Mar 27 18:44:33 2025
$end
$version
	ModelSim Version 2020.1
$end
$timescale
	1ps
$end

$scope module uart_tb $end
$var reg 1 ! rx_bit $end
$var reg 1 " clock $end
$var reg 1 # reset $end
$var reg 1 $ tx_bit $end
$var reg 1 % uart_wr_enable $end
$var reg 1 & uart_sel $end
$var reg 4 ' uart_addr [3:0] $end
$var reg 32 ( wdata_mem [31:0] $end
$var reg 32 ) uart_data [31:0] $end

$scope module dut $end
$var wire 1 * clock $end
$var wire 1 + reset $end
$var wire 1 , rx_bit $end
$var wire 1 - uart_wr_enable $end
$var wire 1 . uart_sel $end
$var wire 1 / wdata_mem [31] $end
$var wire 1 0 wdata_mem [30] $end
$var wire 1 1 wdata_mem [29] $end
$var wire 1 2 wdata_mem [28] $end
$var wire 1 3 wdata_mem [27] $end
$var wire 1 4 wdata_mem [26] $end
$var wire 1 5 wdata_mem [25] $end
$var wire 1 6 wdata_mem [24] $end
$var wire 1 7 wdata_mem [23] $end
$var wire 1 8 wdata_mem [22] $end
$var wire 1 9 wdata_mem [21] $end
$var wire 1 : wdata_mem [20] $end
$var wire 1 ; wdata_mem [19] $end
$var wire 1 < wdata_mem [18] $end
$var wire 1 = wdata_mem [17] $end
$var wire 1 > wdata_mem [16] $end
$var wire 1 ? wdata_mem [15] $end
$var wire 1 @ wdata_mem [14] $end
$var wire 1 A wdata_mem [13] $end
$var wire 1 B wdata_mem [12] $end
$var wire 1 C wdata_mem [11] $end
$var wire 1 D wdata_mem [10] $end
$var wire 1 E wdata_mem [9] $end
$var wire 1 F wdata_mem [8] $end
$var wire 1 G wdata_mem [7] $end
$var wire 1 H wdata_mem [6] $end
$var wire 1 I wdata_mem [5] $end
$var wire 1 J wdata_mem [4] $end
$var wire 1 K wdata_mem [3] $end
$var wire 1 L wdata_mem [2] $end
$var wire 1 M wdata_mem [1] $end
$var wire 1 N wdata_mem [0] $end
$var wire 1 O uart_addr [3] $end
$var wire 1 P uart_addr [2] $end
$var wire 1 Q uart_addr [1] $end
$var wire 1 R uart_addr [0] $end
$var reg 1 S tx_bit $end
$var reg 32 T uart_data [31:0] $end
$var reg 8 U tx_fifo_data [7:0] $end
$var reg 8 V rx_fifo_data [7:0] $end
$var reg 8 W tx_data [7:0] $end
$var reg 8 X rx_data [7:0] $end
$var reg 1 Y parity_enable $end
$var reg 1 Z stop_bit $end
$var reg 1 [ parity $end
$var reg 1 \ tx_fifo_full $end
$var reg 1 ] tx_parity_add $end
$var reg 1 ^ rx_parity_add $end
$var reg 1 _ tx_shift_reg_en $end
$var reg 1 ` rx_fifo_rd_en $end
$var reg 1 a parity_error $end
$var reg 1 b uart_en $end
$var reg 1 c tx_fifo_rd_en $end
$var reg 1 d tx_fifo_wr_en $end
$var reg 1 e stop_bit_error $end
$var reg 1 f rx_fifo_empty $end
$var reg 1 g rx_fifo_full $end
$var reg 1 h busy $end
$var reg 1 i rx_en $end
$var reg 1 j tx_en $end
$var reg 1 k rx_baud_rate_reg_en $end
$var reg 1 l tx_fifo_empty $end
$var reg 1 m tx_baud_rate_reg_en $end
$var reg 1 n bit_count $end
$var reg 1 o rx_baud_rate $end
$var reg 1 p tx_baud_rate $end
$var reg 1 q tx_shift_en $end
$var reg 1 r tx_bit_count_reg_en $end
$var reg 1 s rx_shift_reg_en $end
$var reg 1 t rx_bit_count_reg_en $end
$var reg 1 u tx_bit_count $end
$var reg 1 v rx_bit_count $end
$var reg 1 w rx_fifo_wr_en $end
$var reg 1 x status_reg_en $end
$var reg 1 y receive_parity $end
$var reg 16 z baud_rate [15:0] $end

$scope module counter_reg $end
$var wire 1 * clock $end
$var wire 1 + reset $end
$var wire 1 { tx_bit_count_reg_en $end
$var wire 1 | rx_bit_count_reg_en $end
$var reg 1 } tx_bit_count $end
$var reg 1 ~ rx_bit_count $end
$var reg 4 !! tx_bit_co [3:0] $end
$var reg 4 "! rx_bit_co [3:0] $end
$var reg 4 #! tx_bits_co [3:0] $end
$var reg 4 $! rx_bits_co [3:0] $end
$upscope $end

$scope module baud_reg $end
$var wire 1 * clock $end
$var wire 1 + reset $end
$var wire 1 %! tx_baud_rate_reg_en $end
$var wire 1 &! rx_baud_rate_reg_en $end
$var wire 1 '! baud_rate [15] $end
$var wire 1 (! baud_rate [14] $end
$var wire 1 )! baud_rate [13] $end
$var wire 1 *! baud_rate [12] $end
$var wire 1 +! baud_rate [11] $end
$var wire 1 ,! baud_rate [10] $end
$var wire 1 -! baud_rate [9] $end
$var wire 1 .! baud_rate [8] $end
$var wire 1 /! baud_rate [7] $end
$var wire 1 0! baud_rate [6] $end
$var wire 1 1! baud_rate [5] $end
$var wire 1 2! baud_rate [4] $end
$var wire 1 3! baud_rate [3] $end
$var wire 1 4! baud_rate [2] $end
$var wire 1 5! baud_rate [1] $end
$var wire 1 6! baud_rate [0] $end
$var reg 1 7! tx_baud_rate $end
$var reg 1 8! rx_baud_rate $end
$var reg 16 9! rx_baud_rate_count [15:0] $end
$var reg 16 :! rx_baud_rate_count_updated [15:0] $end
$var reg 16 ;! tx_baud_rate_count [15:0] $end
$var reg 16 <! tx_baud_rate_count_updated [15:0] $end
$var reg 16 =! rx_baud_rate_updated [15:0] $end
$var reg 1 >! sample $end
$upscope $end

$scope module parity_calculator $end
$var wire 1 ?! parity $end
$var wire 1 @! parity_enable $end
$var wire 1 A! rx_data [7] $end
$var wire 1 B! rx_data [6] $end
$var wire 1 C! rx_data [5] $end
$var wire 1 D! rx_data [4] $end
$var wire 1 E! rx_data [3] $end
$var wire 1 F! rx_data [2] $end
$var wire 1 G! rx_data [1] $end
$var wire 1 H! rx_data [0] $end
$var wire 1 I! tx_data [7] $end
$var wire 1 J! tx_data [6] $end
$var wire 1 K! tx_data [5] $end
$var wire 1 L! tx_data [4] $end
$var wire 1 M! tx_data [3] $end
$var wire 1 N! tx_data [2] $end
$var wire 1 O! tx_data [1] $end
$var wire 1 P! tx_data [0] $end
$var reg 1 Q! rx_parity_add $end
$var reg 1 R! tx_parity_add $end
$var reg 1 S! rx_parity $end
$var reg 1 T! tx_parity $end
$upscope $end

$scope module r_fifo $end
$var parameter 32 U! DEPTH $end
$var wire 1 * clock $end
$var wire 1 + reset $end
$var wire 1 V! rx_fifo_rd_en $end
$var wire 1 W! rx_fifo_wr_en $end
$var wire 1 X! rx_fifo_data [7] $end
$var wire 1 Y! rx_fifo_data [6] $end
$var wire 1 Z! rx_fifo_data [5] $end
$var wire 1 [! rx_fifo_data [4] $end
$var wire 1 \! rx_fifo_data [3] $end
$var wire 1 ]! rx_fifo_data [2] $end
$var wire 1 ^! rx_fifo_data [1] $end
$var wire 1 _! rx_fifo_data [0] $end
$var reg 1 `! rx_fifo_empty $end
$var reg 1 a! rx_fifo_full $end
$var reg 8 b! rx_data [7:0] $end
$var reg 5 c! fifo_count [4:0] $end
$var reg 4 d! wr_ptr [3:0] $end
$var reg 4 e! rd_ptr [3:0] $end
$upscope $end

$scope module r_shift_reg $end
$var wire 1 * clock $end
$var wire 1 + reset $end
$var wire 1 , rx_bit $end
$var wire 1 f! rx_shift_reg_en $end
$var reg 8 g! rx_fifo_data [7:0] $end
$var reg 9 h! rx_shift_reg [8:0] $end
$upscope $end

$scope module t_shift $end
$var wire 1 * clock $end
$var wire 1 + reset $end
$var wire 1 i! tx_parity_add $end
$var wire 1 j! tx_shift_reg_en $end
$var wire 1 k! tx_shift_en $end
$var wire 1 l! parity_enable $end
$var wire 1 m! tx_data [7] $end
$var wire 1 n! tx_data [6] $end
$var wire 1 o! tx_data [5] $end
$var wire 1 p! tx_data [4] $end
$var wire 1 q! tx_data [3] $end
$var wire 1 r! tx_data [2] $end
$var wire 1 s! tx_data [1] $end
$var wire 1 t! tx_data [0] $end
$var reg 1 u! tx_bit $end
$var reg 11 v! tx_shift_reg [10:0] $end
$upscope $end

$scope module t_fifo $end
$var parameter 32 w! DEPTH $end
$var wire 1 * clock $end
$var wire 1 + reset $end
$var wire 1 x! tx_fifo_rd_en $end
$var wire 1 y! tx_fifo_wr_en $end
$var wire 1 z! tx_fifo_data [7] $end
$var wire 1 {! tx_fifo_data [6] $end
$var wire 1 |! tx_fifo_data [5] $end
$var wire 1 }! tx_fifo_data [4] $end
$var wire 1 ~! tx_fifo_data [3] $end
$var wire 1 !" tx_fifo_data [2] $end
$var wire 1 "" tx_fifo_data [1] $end
$var wire 1 #" tx_fifo_data [0] $end
$var reg 1 $" tx_fifo_empty $end
$var reg 1 %" tx_fifo_full $end
$var reg 8 &" tx_data [7:0] $end
$var reg 5 '" fifo_count [4:0] $end
$var reg 4 (" wr_ptr [3:0] $end
$var reg 4 )" rd_ptr [3:0] $end
$upscope $end

$scope module uart_contr $end
$var wire 1 * clock $end
$var wire 1 + reset $end
$var wire 1 *" stop_bit $end
$var wire 1 +" parity_enable $end
$var wire 1 ," uart_en $end
$var wire 1 -" parity $end
$var reg 1 ." busy $end
$var wire 1 /" tx_en $end
$var wire 1 0" tx_fifo_empty $end
$var wire 1 1" tx_baud_rate $end
$var wire 1 2" tx_bit_count $end
$var reg 1 3" tx_baud_rate_reg_en $end
$var reg 1 4" tx_bit_count_reg_en $end
$var reg 1 5" tx_shift_reg_en $end
$var reg 1 6" tx_shift_en $end
$var reg 1 7" tx_fifo_rd_en $end
$var wire 1 8" rx_en $end
$var wire 1 9" rx_baud_rate $end
$var wire 1 :" rx_bit_count $end
$var wire 1 , rx_bit $end
$var wire 1 ;" rx_fifo_full $end
$var reg 1 <" rx_baud_rate_reg_en $end
$var reg 1 =" rx_bit_count_reg_en $end
$var reg 1 >" rx_shift_reg_en $end
$var reg 1 ?" receive_parity $end
$var reg 1 @" stop_bit_error $end
$var reg 1 A" rx_fifo_wr_en $end
$var reg 1 B" status_reg_en $end
$var reg 1 C" rx_busy $end
$var reg 1 D" tx_busy $end
$var reg 3 E" rx_current_state [2:0] $end
$var reg 3 F" rx_next_state [2:0] $end
$var reg 3 G" tx_current_state [2:0] $end
$var reg 3 H" tx_next_state [2:0] $end
$upscope $end

$scope module uart_reg $end
$var wire 1 * clock $end
$var wire 1 + reset $end
$var wire 1 - uart_wr_enable $end
$var wire 1 . uart_sel $end
$var wire 1 / wdata_mem [31] $end
$var wire 1 0 wdata_mem [30] $end
$var wire 1 1 wdata_mem [29] $end
$var wire 1 2 wdata_mem [28] $end
$var wire 1 3 wdata_mem [27] $end
$var wire 1 4 wdata_mem [26] $end
$var wire 1 5 wdata_mem [25] $end
$var wire 1 6 wdata_mem [24] $end
$var wire 1 7 wdata_mem [23] $end
$var wire 1 8 wdata_mem [22] $end
$var wire 1 9 wdata_mem [21] $end
$var wire 1 : wdata_mem [20] $end
$var wire 1 ; wdata_mem [19] $end
$var wire 1 < wdata_mem [18] $end
$var wire 1 = wdata_mem [17] $end
$var wire 1 > wdata_mem [16] $end
$var wire 1 ? wdata_mem [15] $end
$var wire 1 @ wdata_mem [14] $end
$var wire 1 A wdata_mem [13] $end
$var wire 1 B wdata_mem [12] $end
$var wire 1 C wdata_mem [11] $end
$var wire 1 D wdata_mem [10] $end
$var wire 1 E wdata_mem [9] $end
$var wire 1 F wdata_mem [8] $end
$var wire 1 G wdata_mem [7] $end
$var wire 1 H wdata_mem [6] $end
$var wire 1 I wdata_mem [5] $end
$var wire 1 J wdata_mem [4] $end
$var wire 1 K wdata_mem [3] $end
$var wire 1 L wdata_mem [2] $end
$var wire 1 M wdata_mem [1] $end
$var wire 1 N wdata_mem [0] $end
$var wire 1 O uart_addr [3] $end
$var wire 1 P uart_addr [2] $end
$var wire 1 Q uart_addr [1] $end
$var wire 1 R uart_addr [0] $end
$var reg 32 I" uart_data [31:0] $end
$var wire 1 J" tx_fifo_full $end
$var wire 1 K" parity_error $end
$var wire 1 L" stop_bit_error $end
$var wire 1 M" status_reg_en $end
$var wire 1 N" rx_fifo_full $end
$var wire 1 O" rx_fifo_empty $end
$var wire 1 P" busy $end
$var reg 1 Q" rx_fifo_rd_en $end
$var reg 1 R" tx_fifo_wr_en $end
$var wire 1 S" rx_data [7] $end
$var wire 1 T" rx_data [6] $end
$var wire 1 U" rx_data [5] $end
$var wire 1 V" rx_data [4] $end
$var wire 1 W" rx_data [3] $end
$var wire 1 X" rx_data [2] $end
$var wire 1 Y" rx_data [1] $end
$var wire 1 Z" rx_data [0] $end
$var reg 8 [" tx_fifo_data [7:0] $end
$var reg 1 \" parity_enable $end
$var reg 1 ]" parity $end
$var reg 1 ^" stop_bit $end
$var reg 1 _" uart_en $end
$var reg 1 `" tx_en $end
$var reg 1 a" rx_en $end
$var reg 16 b" baud_rate [15:0] $end
$var reg 8 c" uart_data_reg [7:0] $end
$var reg 8 d" uart_ctrl_reg [7:0] $end
$var reg 8 e" uart_status_reg [7:0] $end
$var reg 16 f" uart_baud_rate_reg [15:0] $end
$upscope $end
$upscope $end
$upscope $end
$enddefinitions $end
#0
$dumpvars
x!
0"
1#
x$
0%
0&
b0 '
b0 (
b0xxxxx0 )
xS
b0xxxxx0 T
b0 U
bx V
bx W
bx X
0Y
0Z
0[
x\
x]
x^
0_
0`
xa
0b
0c
0d
xe
xf
xg
0h
0i
0j
0k
xl
0m
xn
xo
xp
0q
0r
0s
0t
xu
xv
0w
0x
xy
b0 z
x}
x~
b0 !!
b0 "!
b1 #!
b1 $!
x7!
x8!
bx 9!
bx :!
bx ;!
bx <!
b0 =!
x>!
xQ!
xR!
xS!
xT!
x`!
xa!
bx b!
bx c!
bx d!
bx e!
bx g!
bx h!
xu!
bx v!
x$"
x%"
bx &"
bx '"
bx ("
bx )"
0."
03"
04"
05"
06"
07"
0<"
0="
0>"
x?"
x@"
0A"
0B"
0C"
0D"
bx E"
bx F"
bx G"
bx H"
b0xxxxx0 I"
0Q"
0R"
b0 ["
0\"
0]"
0^"
0_"
0`"
0a"
b0 b"
b0 c"
b0 d"
b0xxxxx0 e"
b0 f"
b10000 U!
b10000 w!
0*
1+
x,
0-
0.
0N
0M
0L
0K
0J
0I
0H
0G
0F
0E
0D
0C
0B
0A
0@
0?
0>
0=
0<
0;
0:
09
08
07
06
05
04
03
02
01
00
0/
0R
0Q
0P
0O
0{
0|
0%!
0&!
06!
05!
04!
03!
02!
01!
00!
0/!
0.!
0-!
0,!
0+!
0*!
0)!
0(!
0'!
0?!
0@!
xH!
xG!
xF!
xE!
xD!
xC!
xB!
xA!
xP!
xO!
xN!
xM!
xL!
xK!
xJ!
xI!
0V!
0W!
x_!
x^!
x]!
x\!
x[!
xZ!
xY!
xX!
0f!
xi!
0j!
0k!
0l!
xt!
xs!
xr!
xq!
xp!
xo!
xn!
xm!
0x!
0y!
0#"
0""
0!"
0~!
0}!
0|!
0{!
0z!
0*"
0+"
0,"
0-"
0/"
x0"
x1"
x2"
08"
x9"
x:"
x;"
xJ"
xK"
xL"
0M"
xN"
xO"
0P"
xZ"
xY"
xX"
xW"
xV"
xU"
xT"
xS"
$end
#5
1"
1*
0}
0~
0>!
b0 9!
08!
b0 ;!
07!
b0 e!
b0 d!
b0 c!
b0 h!
b11111111111 v!
b0 )"
b0 ("
b0 '"
b0 E"
b0 G"
0%"
1$"
1u!
b0 g!
0a!
1`!
0p
0o
0v
0u
1f
0g
b0 V
1S
1l
0\
1$
0_!
0^!
0]!
0\!
0[!
0Z!
0Y!
0X!
01"
09"
0:"
02"
1O"
0N"
0;"
10"
0J"
b1xx0 e"
1!
b0 H"
b0 F"
b1 <!
b1 :!
1,
b1xx0 I"
b1xx0 T
b1xx0 )
#10
0"
0*
#15
1"
1*
#20
0"
0*
#25
1"
1*
0#
0+
#30
0"
0*
#35
1"
1*
b1100 '
b1100111 (
1%
1N
1M
1L
1I
1H
1-
1P
1O
b0 I"
b0 T
b0 )
#40
0"
0*
b1100111 f"
b1100111 b"
b1100111 z
16!
15!
14!
11!
10!
b110011 =!
b1100111 I"
b1100111 T
b1100111 )
#45
1"
1*
0%
0-
#50
0"
0*
#55
1"
1*
b1000 '
b110001 (
1%
0M
0L
1J
0H
1-
0P
b0 I"
b0 T
b0 )
#60
0"
0*
b110001 d"
1a"
1`"
1_"
1b
1j
1i
1,"
1/"
18"
b1 F"
b1 H"
b110001 I"
b110001 T
b110001 )
#65
1"
1*
0%
0-
b1 E"
b1 G"
#70
0"
0*
#75
1"
1*
b100 '
b1101 (
1%
1L
1K
0J
0I
1-
1P
0O
b0xxxxxxxx I"
b0xxxxxxxx T
b0xxxxxxxx )
#80
0"
0*
b1101 c"
1R"
1d
b1101 ["
b1101 U
1y!
1#"
1!"
1~!
b1001xx0 e"
#85
1"
1*
0%
0-
b1 ("
b1 '"
0$"
b1101 &"
b1101 W
0l
1P!
0O!
1N!
1M!
0L!
0K!
0J!
0I!
1t!
0s!
1r!
1q!
0p!
0o!
0n!
0m!
1T!
1R!
1]
1i!
00"
b10 H"
13"
15"
17"
1D"
1."
1c
1_
1m
1h
1x!
1j!
1%!
1P"
b1001xx1 e"
#90
0"
0*
0R"
0d
0y!
b1xx1 e"
#95
1"
1*
b1000011 (
1%
1M
0L
0K
1H
1-
b1 ;!
b11111111101 v!
b10000110101 v!
b1 )"
b0 '"
b10 G"
1$"
bx &"
bx W
1l
xP!
xO!
xN!
xM!
xL!
xK!
xJ!
xI!
xt!
xs!
xr!
xq!
xp!
xo!
xn!
xm!
xT!
xR!
x]
xi!
10"
03"
05"
07"
0D"
13"
1D"
b10 <!
0c
0_
0x!
0j!
#100
0"
0*
b1000011 c"
1R"
1d
b1000011 ["
b1000011 U
1y!
1""
0!"
0~!
1{!
b1001xx1 e"
#105
1"
1*
0%
0-
b10 ;!
b10 ("
b1 '"
0$"
b1000011 &"
b1000011 W
0l
1P!
1O!
0N!
0M!
0L!
0K!
1J!
0I!
1t!
1s!
0r!
0q!
0p!
0o!
1n!
0m!
1T!
1R!
1]
1i!
00"
03"
0D"
13"
1D"
b11 <!
#110
0"
0*
0R"
0d
0y!
b1xx1 e"
#115
1"
1*
b11 ;!
b100 <!
#120
0"
0*
#125
1"
1*
b100 ;!
b101 <!
#130
0"
0*
#135
1"
1*
b101 ;!
b110 <!
#140
0"
0*
#145
1"
1*
b110 ;!
b111 <!
#150
0"
0*
#155
1"
1*
b111 ;!
b1000 <!
#160
0"
0*
#165
1"
1*
b1000 ;!
b1001 <!
#170
0"
0*
#175
1"
1*
b1001 ;!
b1010 <!
#180
0"
0*
#185
1"
1*
b1010 ;!
b1011 <!
#190
0"
0*
#195
1"
1*
b1011 ;!
b1100 <!
#200
0"
0*
#205
1"
1*
b1100 ;!
b1101 <!
#210
0"
0*
#215
1"
1*
b1101 ;!
b1110 <!
#220
0"
0*
#225
1"
1*
b1110 ;!
b1111 <!
#230
0"
0*
#235
1"
1*
b1111 ;!
b10000 <!
#240
0"
0*
#245
1"
1*
b10000 ;!
b10001 <!
#250
0"
0*
#255
1"
1*
b10001 ;!
b10010 <!
#260
0"
0*
#265
1"
1*
b10010 ;!
b10011 <!
#270
0"
0*
#275
1"
1*
b10011 ;!
b10100 <!
#280
0"
0*
#285
1"
1*
b10100 ;!
b10101 <!
#290
0"
0*
#295
1"
1*
b10101 ;!
b10110 <!
#300
0"
0*
#305
1"
1*
b10110 ;!
b10111 <!
#310
0"
0*
#315
1"
1*
b10111 ;!
b11000 <!
#320
0"
0*
#325
1"
1*
b11000 ;!
b11001 <!
#330
0"
0*
#335
1"
1*
b11001 ;!
b11010 <!
#340
0"
0*
#345
1"
1*
b11010 ;!
b11011 <!
#350
0"
0*
#355
1"
1*
b11011 ;!
b11100 <!
#360
0"
0*
#365
1"
1*
b11100 ;!
b11101 <!
#370
0"
0*
#375
1"
1*
b11101 ;!
b11110 <!
#380
0"
0*
#385
1"
1*
b11110 ;!
b11111 <!
#390
0"
0*
#395
1"
1*
b11111 ;!
b100000 <!
#400
0"
0*
#405
1"
1*
b100000 ;!
b100001 <!
#410
0"
0*
#415
1"
1*
b100001 ;!
b100010 <!
#420
0"
0*
#425
1"
1*
b100010 ;!
b100011 <!
#430
0"
0*
#435
1"
1*
b100011 ;!
b100100 <!
#440
0"
0*
#445
1"
1*
b100100 ;!
b100101 <!
#450
0"
0*
#455
1"
1*
b100101 ;!
b100110 <!
#460
0"
0*
#465
1"
1*
b100110 ;!
b100111 <!
#470
0"
0*
#475
1"
1*
b100111 ;!
b101000 <!
#480
0"
0*
#485
1"
1*
b101000 ;!
b101001 <!
#490
0"
0*
#495
1"
1*
b101001 ;!
b101010 <!
#500
0"
0*
#505
1"
1*
b101010 ;!
b101011 <!
#510
0"
0*
#515
1"
1*
b101011 ;!
b101100 <!
#520
0"
0*
#525
1"
1*
b101100 ;!
b101101 <!
#530
0"
0*
#535
1"
1*
b101101 ;!
b101110 <!
#540
0"
0*
#545
1"
1*
b101110 ;!
b101111 <!
#550
0"
0*
#555
1"
1*
b101111 ;!
b110000 <!
#560
0"
0*
#565
1"
1*
b110000 ;!
b110001 <!
#570
0"
0*
#575
1"
1*
b110001 ;!
b110010 <!
#580
0"
0*
#585
1"
1*
b110010 ;!
b110011 <!
#590
0"
0*
#595
1"
1*
b110011 ;!
b110100 <!
#600
0"
0*
#605
1"
1*
b110100 ;!
b110101 <!
#610
0"
0*
#615
1"
1*
b110101 ;!
b110110 <!
#620
0"
0*
#625
1"
1*
b110110 ;!
b110111 <!
#630
0"
0*
#635
1"
1*
b110111 ;!
b111000 <!
#640
0"
0*
#645
1"
1*
b111000 ;!
b111001 <!
#650
0"
0*
#655
1"
1*
b111001 ;!
b111010 <!
#660
0"
0*
#665
1"
1*
b111010 ;!
b111011 <!
#670
0"
0*
#675
1"
1*
b111011 ;!
b111100 <!
#680
0"
0*
#685
1"
1*
b111100 ;!
b111101 <!
#690
0"
0*
#695
1"
1*
b111101 ;!
b111110 <!
#700
0"
0*
#705
1"
1*
b111110 ;!
b111111 <!
#710
0"
0*
#715
1"
1*
b111111 ;!
b1000000 <!
#720
0"
0*
#725
1"
1*
b1000000 ;!
b1000001 <!
#730
0"
0*
#735
1"
1*
b1000001 ;!
b1000010 <!
#740
0"
0*
#745
1"
1*
b1000010 ;!
b1000011 <!
#750
0"
0*
#755
1"
1*
b1000011 ;!
b1000100 <!
#760
0"
0*
#765
1"
1*
b1000100 ;!
b1000101 <!
#770
0"
0*
#775
1"
1*
b1000101 ;!
b1000110 <!
#780
0"
0*
#785
1"
1*
b1000110 ;!
b1000111 <!
#790
0"
0*
#795
1"
1*
b1000111 ;!
b1001000 <!
#800
0"
0*
#805
1"
1*
b1001000 ;!
b1001001 <!
#810
0"
0*
#815
1"
1*
b1001001 ;!
b1001010 <!
#820
0"
0*
#825
1"
1*
b1001010 ;!
b1001011 <!
#830
0"
0*
#835
1"
1*
b1001011 ;!
b1001100 <!
#840
0"
0*
#845
1"
1*
b1001100 ;!
b1001101 <!
#850
0"
0*
#855
1"
1*
b1001101 ;!
b1001110 <!
#860
0"
0*
#865
1"
1*
b1001110 ;!
b1001111 <!
#870
0"
0*
#875
1"
1*
b1001111 ;!
b1010000 <!
#880
0"
0*
#885
1"
1*
b1010000 ;!
b1010001 <!
#890
0"
0*
#895
1"
1*
b1010001 ;!
b1010010 <!
#900
0"
0*
#905
1"
1*
b1010010 ;!
b1010011 <!
#910
0"
0*
#915
1"
1*
b1010011 ;!
b1010100 <!
#920
0"
0*
#925
1"
1*
b1010100 ;!
b1010101 <!
#930
0"
0*
#935
1"
1*
b1010101 ;!
b1010110 <!
#940
0"
0*
#945
1"
1*
b1010110 ;!
b1010111 <!
#950
0"
0*
#955
1"
1*
b1010111 ;!
b1011000 <!
#960
0"
0*
#965
1"
1*
b1011000 ;!
b1011001 <!
#970
0"
0*
#975
1"
1*
b1011001 ;!
b1011010 <!
#980
0"
0*
#985
1"
1*
b1011010 ;!
b1011011 <!
#990
0"
0*
#995
1"
1*
b1011011 ;!
b1011100 <!
#1000
0"
0*
#1005
1"
1*
b1011100 ;!
b1011101 <!
#1010
0"
0*
#1015
1"
1*
b1011101 ;!
b1011110 <!
#1020
0"
0*
#1025
1"
1*
b1011110 ;!
b1011111 <!
#1030
0"
0*
#1035
1"
1*
b1011111 ;!
b1100000 <!
#1040
0"
0*
#1045
1"
1*
b1100000 ;!
b1100001 <!
#1050
0"
0*
#1055
1"
1*
b1100001 ;!
b1100010 <!
#1060
0"
0*
#1065
1"
1*
b1100010 ;!
b1100011 <!
#1070
0"
0*
#1075
1"
1*
b1100011 ;!
b1100100 <!
#1080
0"
0*
#1085
1"
1*
b1100100 ;!
b1100101 <!
#1090
0"
0*
#1095
1"
1*
b1100101 ;!
b1100110 <!
#1100
0"
0*
#1105
1"
1*
b1100110 ;!
b1100111 <!
#1110
0"
0*
#1115
1"
1*
b1100111 ;!
b1101000 <!
#1120
0"
0*
#1125
1"
1*
b0 ;!
17!
1p
11"
03"
0D"
13"
1D"
b11 H"
16"
b1 <!
1q
1k!
#1130
0"
0*
#1135
1"
1*
b1 ;!
07!
b11000011010 v!
b11 G"
0u!
0p
0S
0$
01"
0!
03"
06"
0D"
13"
1D"
b10 <!
0q
0k!
0,
b10 F"
1<"
1C"
1k
1&!
#1140
0"
0*
#1145
1"
1*
b1 9!
b10 ;!
b10 E"
0<"
0C"
1<"
1C"
b11 <!
b10 :!
#1150
0"
0*
#1155
1"
1*
b10 9!
b11 ;!
b100 <!
b11 :!
#1160
0"
0*
#1165
1"
1*
b11 9!
b100 ;!
b101 <!
b100 :!
#1170
0"
0*
#1175
1"
1*
b100 9!
b101 ;!
b110 <!
b101 :!
#1180
0"
0*
#1185
1"
1*
b101 9!
b110 ;!
b111 <!
b110 :!
#1190
0"
0*
#1195
1"
1*
b110 9!
b111 ;!
b1000 <!
b111 :!
#1200
0"
0*
#1205
1"
1*
b111 9!
b1000 ;!
b1001 <!
b1000 :!
#1210
0"
0*
#1215
1"
1*
b1000 9!
b1001 ;!
b1010 <!
b1001 :!
#1220
0"
0*
#1225
1"
1*
b1001 9!
b1010 ;!
b1011 <!
b1010 :!
#1230
0"
0*
#1235
1"
1*
b1010 9!
b1011 ;!
b1100 <!
b1011 :!
#1240
0"
0*
#1245
1"
1*
b1011 9!
b1100 ;!
b1101 <!
b1100 :!
#1250
0"
0*
#1255
1"
1*
b1100 9!
b1101 ;!
b1110 <!
b1101 :!
#1260
0"
0*
#1265
1"
1*
b1101 9!
b1110 ;!
b1111 <!
b1110 :!
#1270
0"
0*
#1275
1"
1*
b1110 9!
b1111 ;!
b10000 <!
b1111 :!
#1280
0"
0*
#1285
1"
1*
b1111 9!
b10000 ;!
b10001 <!
b10000 :!
#1290
0"
0*
#1295
1"
1*
b10000 9!
b10001 ;!
b10010 <!
b10001 :!
#1300
0"
0*
#1305
1"
1*
b10001 9!
b10010 ;!
b10011 <!
b10010 :!
#1310
0"
0*
#1315
1"
1*
b10010 9!
b10011 ;!
b10100 <!
b10011 :!
#1320
0"
0*
#1325
1"
1*
b10011 9!
b10100 ;!
b10101 <!
b10100 :!
#1330
0"
0*
#1335
1"
1*
b10100 9!
b10101 ;!
b10110 <!
b10101 :!
#1340
0"
0*
#1345
1"
1*
b10101 9!
b10110 ;!
b10111 <!
b10110 :!
#1350
0"
0*
#1355
1"
1*
b10110 9!
b10111 ;!
b11000 <!
b10111 :!
#1360
0"
0*
#1365
1"
1*
b10111 9!
b11000 ;!
b11001 <!
b11000 :!
#1370
0"
0*
#1375
1"
1*
b11000 9!
b11001 ;!
b11010 <!
b11001 :!
#1380
0"
0*
#1385
1"
1*
b11001 9!
b11010 ;!
b11011 <!
b11010 :!
#1390
0"
0*
#1395
1"
1*
b11010 9!
b11011 ;!
b11100 <!
b11011 :!
#1400
0"
0*
#1405
1"
1*
b11011 9!
b11100 ;!
b11101 <!
b11100 :!
#1410
0"
0*
#1415
1"
1*
b11100 9!
b11101 ;!
b11110 <!
b11101 :!
#1420
0"
0*
#1425
1"
1*
b11101 9!
b11110 ;!
b11111 <!
b11110 :!
#1430
0"
0*
#1435
1"
1*
b11110 9!
b11111 ;!
b100000 <!
b11111 :!
#1440
0"
0*
#1445
1"
1*
b11111 9!
b100000 ;!
b100001 <!
b100000 :!
#1450
0"
0*
#1455
1"
1*
b100000 9!
b100001 ;!
b100010 <!
b100001 :!
#1460
0"
0*
#1465
1"
1*
b100001 9!
b100010 ;!
b100011 <!
b100010 :!
#1470
0"
0*
#1475
1"
1*
b100010 9!
b100011 ;!
b100100 <!
b100011 :!
#1480
0"
0*
#1485
1"
1*
b100011 9!
b100100 ;!
b100101 <!
b100100 :!
#1490
0"
0*
#1495
1"
1*
b100100 9!
b100101 ;!
b100110 <!
b100101 :!
#1500
0"
0*
#1505
1"
1*
b100101 9!
b100110 ;!
b100111 <!
b100110 :!
#1510
0"
0*
#1515
1"
1*
b100110 9!
b100111 ;!
b101000 <!
b100111 :!
#1520
0"
0*
#1525
1"
1*
b100111 9!
b101000 ;!
b101001 <!
b101000 :!
#1530
0"
0*
#1535
1"
1*
b101000 9!
b101001 ;!
b101010 <!
b101001 :!
#1540
0"
0*
#1545
1"
1*
b101001 9!
b101010 ;!
b101011 <!
b101010 :!
#1550
0"
0*
#1555
1"
1*
b101010 9!
b101011 ;!
b101100 <!
b101011 :!
#1560
0"
0*
#1565
1"
1*
b101011 9!
b101100 ;!
b101101 <!
b101100 :!
#1570
0"
0*
#1575
1"
1*
b101100 9!
b101101 ;!
b101110 <!
b101101 :!
#1580
0"
0*
#1585
1"
1*
b101101 9!
b101110 ;!
b101111 <!
b101110 :!
#1590
0"
0*
#1595
1"
1*
b101110 9!
b101111 ;!
b110000 <!
b101111 :!
#1600
0"
0*
#1605
1"
1*
b101111 9!
b110000 ;!
b110001 <!
b110000 :!
#1610
0"
0*
